{
  "sections": {
    "collection-header": {
      "type": "collection-header",
      "settings": {
        "enable": true,
        "collection_image_enable": true,
        "parallax": false,
        "parallax_direction": "top"
      }
    },
    "promo-grid": {
      "type": "promo-grid",
      "blocks": {
        "banner": {
          "type": "banner",
          "settings": {
            "heading": "",
            "text": "",
            "link": "",
            "label": "",
            "color_scheme": "1"
          }
        }
      },
      "block_order": [
        "banner"
      ],
      "settings": {
        "full_width": false,
        "gutter_size": 1,
        "space_above": false,
        "space_below": false,
        "lazyload_images": true
      }
    },
    "eb461f07-e955-45be-9325-33854865bda8": {
      "type": "rich-text",
      "disabled": true,
      "blocks": {
        "template--16020970340552__eb461f07-e955-45be-9325-33854865bda8-168156784991d0eea5-0": {
          "type": "heading",
          "settings": {
            "title": "Gifts",
            "heading_size": "h2"
          }
        },
        "template--16020970340552__eb461f07-e955-45be-9325-33854865bda8-168156784991d0eea5-1": {
          "type": "text",
          "settings": {
            "enlarge_text": true,
            "text": "<p>Looking for something other than gorgeous flowers? A gift basket or chocolates may be the perfect gift for your recipient. Order specialty chocolates or a box filled with candles and more.<\/p><p><em><strong>$15 next-business day delivery and free shipping over $99!<\/strong><\/em><\/p>"
          }
        }
      },
      "block_order": [
        "template--16020970340552__eb461f07-e955-45be-9325-33854865bda8-168156784991d0eea5-0",
        "template--16020970340552__eb461f07-e955-45be-9325-33854865bda8-168156784991d0eea5-1"
      ],
      "settings": {
        "align_text": "center",
        "narrow_column": false,
        "color_scheme": "1",
        "show_wave": false,
        "divider": false
      }
    },
    "main-collection": {
      "type": "main-collection",
      "blocks": {
        "collection_description": {
          "type": "collection_description",
          "settings": {}
        },
        "subcollections": {
          "type": "subcollections",
          "settings": {}
        },
        "product_grid": {
          "type": "product_grid",
          "settings": {
            "grid_style": "medium"
          }
        }
      },
      "block_order": [
        "collection_description",
        "subcollections",
        "product_grid"
      ],
      "settings": {
        "enable_sidebar": true,
        "collapse_filters": true,
        "enable_color_swatches": false,
        "enable_sort": true
      }
    },
    "recently-viewed": {
      "type": "recently-viewed",
      "disabled": true,
      "settings": {}
    }
  },
  "order": [
    "collection-header",
    "promo-grid",
    "eb461f07-e955-45be-9325-33854865bda8",
    "main-collection",
    "recently-viewed"
  ]
}