{
  "sections": {
    "main": {
      "type": "main-page",
      "disabled": true,
      "settings": {}
    },
    "slideshow": {
      "type": "slideshow",
      "disabled": true,
      "blocks": {
        "slideshow-0": {
          "type": "hero",
          "settings": {
            "top_subheading": "",
            "title": "<p>Overlaid Hero Slide<\/p>",
            "title_size": 70,
            "subheading": "And optional subtext",
            "link": "",
            "link_text": "",
            "link_2": "",
            "link_text_2": "",
            "color_accent": "#ffffff",
            "text_align": "vertical-bottom horizontal-left",
            "overlay_opacity": 0
          }
        }
      },
      "block_order": [
        "slideshow-0"
      ],
      "settings": {
        "full_width": true,
        "desktop_size": 0,
        "mobile_size": 0,
        "style": "arrows",
        "autoplay": true,
        "autoplay_speed": 7,
        "lazyload_images": true
      }
    },
    "rich-text": {
      "type": "rich-text",
      "blocks": {
        "heading": {
          "type": "heading",
          "settings": {
            "title": "Give $10, Get $10!",
            "heading_size": "h2"
          }
        },
        "text": {
          "type": "text",
          "settings": {
            "enlarge_text": true,
            "text": "<p>It's always giving season with BOKAY! When you share your referral link, whoever uses the link to buy their own BOKAY receives $10 off their order. And guess what? You receive $10 off your next purchase too! It's a win, win. <\/p><p>When you order, make sure you're not signed into an account. After you place your order, you'll see the below pop up box. Copy the code and you're ready to refer!<\/p><p>Below are a few designs to inspire your flower creativity - <a href=\"https:\/\/bokay.co\/pages\/build-a-bokay\" title=\"https:\/\/bokay.co\/pages\/build-a-bokay\"><strong>click here to start<\/strong><\/a><strong> <\/strong>building your own BOKAY today.<\/p><p><\/p><p><\/p><p><em>*Referral code for new customers only and receive $10 credit towards your next purchase. Not valid on previous purchases or referrals. Referral must be made through BOKAY’s referral program. Some restrictions apply. <\/em><\/p>"
          }
        }
      },
      "block_order": [
        "heading",
        "text"
      ],
      "settings": {
        "align_text": "center",
        "narrow_column": false,
        "color_scheme": "1",
        "show_wave": false,
        "divider": false
      }
    },
    "map": {
      "type": "map",
      "disabled": true,
      "settings": {
        "map_title": "Our retail store",
        "heading_size": "h2",
        "heading_position": "left",
        "address": "<p>301 Front St W<br\/>Toronto, Canada<\/p><p>Mon - Fri, 8:30am - 10:30pm<br\/>Saturday, 8:30am - 10:30pm<br\/>Sunday, 8:30am - 10:30pm<\/p>",
        "map_address": "301 Front St W, Toronto, ON M5V 2T6",
        "api_key": "",
        "show_button": true,
        "lazyload_images": true
      }
    },
    "featured-collection": {
      "type": "featured-collection",
      "disabled": true,
      "settings": {
        "title": "Featured collection",
        "heading_size": "h2",
        "heading_position": "left",
        "home_featured_products": "",
        "count": 6,
        "products_per_row": 3,
        "mobile_scrollable": true,
        "view_all": true,
        "divider": false
      }
    },
    "form": {
      "type": "contact-form",
      "disabled": true,
      "settings": {
        "title": "Contact us",
        "heading_size": "h2",
        "heading_position": "left",
        "text": "",
        "show_phone": false,
        "narrow_column": true,
        "color_scheme": "none"
      }
    }
  },
  "order": [
    "main",
    "slideshow",
    "rich-text",
    "map",
    "featured-collection",
    "form"
  ]
}