{
  "sections": {
    "main": {
      "type": "main-page",
      "disabled": true,
      "custom_css": [],
      "settings": {}
    },
    "7680be9b-a2de-4919-8766-3590d37418bb": {
      "type": "rich-text",
      "disabled": true,
      "blocks": {
        "template--16020970602696__7680be9b-a2de-4919-8766-3590d37418bb-1679496179bcd4f9f7-0": {
          "type": "heading",
          "settings": {
            "title": "Flower Meanings",
            "heading_size": "h2"
          }
        },
        "template--16020970602696__7680be9b-a2de-4919-8766-3590d37418bb-1679496179bcd4f9f7-1": {
          "type": "text",
          "settings": {
            "enlarge_text": true,
            "text": "<p>While we believe flowers can mean anything you want them to, or just be beautiful, here are some of the classic meanings of popular flowers! Click the flowers below to get started on building your own arrangement.<\/p>"
          }
        }
      },
      "block_order": [
        "template--16020970602696__7680be9b-a2de-4919-8766-3590d37418bb-1679496179bcd4f9f7-0",
        "template--16020970602696__7680be9b-a2de-4919-8766-3590d37418bb-1679496179bcd4f9f7-1"
      ],
      "settings": {
        "align_text": "center",
        "narrow_column": false,
        "color_scheme": "1",
        "show_wave": false,
        "divider": false
      }
    },
    "37d2e67e-d2b9-475c-abed-2449c56c8829": {
      "type": "text-columns",
      "disabled": true,
      "blocks": {
        "template--16020970602696__37d2e67e-d2b9-475c-abed-2449c56c8829-1679495674aeea5827-0": {
          "type": "text_block",
          "settings": {
            "enable_image": true,
            "image": "shopify:\/\/shop_images\/red-rose.jpg",
            "image_mask": "rounded",
            "image_width": 240,
            "title": "Red Rose",
            "heading_size": "h3",
            "text": "<p><em>Meaning: romantic love<\/em><\/p>",
            "align_text": "center",
            "button_label": "Use in the builder",
            "button_link": "https:\/\/www.bokay.com\/pages\/build-a-bokay?build=37612347982024++++++"
          }
        },
        "template--16020970602696__37d2e67e-d2b9-475c-abed-2449c56c8829-1679495674aeea5827-1": {
          "type": "text_block",
          "settings": {
            "enable_image": true,
            "image": "shopify:\/\/shop_images\/pink-rose.jpg",
            "image_mask": "rounded",
            "image_width": 240,
            "title": "Pink Rose",
            "heading_size": "h3",
            "text": "<p><em>Meaning: <\/em><a href=\"https:\/\/bokay.co\/pages\/build-a-bokay?build=37612348309704++++++\" title=\"Use in BOKAY\"><em>sweetness, joy<\/em><\/a><\/p>",
            "align_text": "center",
            "button_label": "",
            "button_link": ""
          }
        },
        "template--16020970602696__37d2e67e-d2b9-475c-abed-2449c56c8829-1679495674aeea5827-2": {
          "type": "text_block",
          "settings": {
            "enable_image": true,
            "image": "shopify:\/\/shop_images\/orange-rose.jpg",
            "image_mask": "rounded",
            "image_width": 240,
            "title": "Orange Rose",
            "heading_size": "h3",
            "text": "<p><em>Meaning: <\/em><a href=\"https:\/\/bokay.co\/pages\/build-a-bokay?build=37612348178632++++++\" title=\"Use in BOKAY\"><em>enthusiasm, passion<\/em><\/a><\/p>",
            "align_text": "center",
            "button_label": "Try it out",
            "button_link": "https:\/\/www.bokay.com\/pages\/build-a-bokay?build=37612348178632++++++"
          }
        }
      },
      "block_order": [
        "template--16020970602696__37d2e67e-d2b9-475c-abed-2449c56c8829-1679495674aeea5827-0",
        "template--16020970602696__37d2e67e-d2b9-475c-abed-2449c56c8829-1679495674aeea5827-1",
        "template--16020970602696__37d2e67e-d2b9-475c-abed-2449c56c8829-1679495674aeea5827-2"
      ],
      "settings": {
        "title": "",
        "heading_size": "h2",
        "align_text": "left",
        "divider": false,
        "color_scheme": "none"
      }
    }
  },
  "order": [
    "main",
    "7680be9b-a2de-4919-8766-3590d37418bb",
    "37d2e67e-d2b9-475c-abed-2449c56c8829"
  ]
}