{
  "sections": {
    "main": {
      "type": "main-page",
      "disabled": true,
      "settings": {}
    },
    "slideshow": {
      "type": "slideshow",
      "blocks": {
        "slideshow-0": {
          "type": "hero",
          "settings": {
            "top_subheading": "",
            "title": "<p>We're so glad you're here<\/p>",
            "title_size": 70,
            "subheading": "",
            "link": "",
            "link_text": "",
            "link_2": "",
            "link_text_2": "",
            "color_accent": "#ffffff",
            "text_align": "vertical-bottom horizontal-right",
            "image": "shopify:\/\/shop_images\/gen_a4faaf02-8b1c-4bb7-a4d4-5452b8022182.png",
            "image_mobile": "shopify:\/\/shop_images\/gen_a4faaf02-8b1c-4bb7-a4d4-5452b8022182.png",
            "overlay_opacity": 8
          }
        }
      },
      "block_order": [
        "slideshow-0"
      ],
      "settings": {
        "full_width": true,
        "desktop_size": 0,
        "mobile_size": 0,
        "style": "arrows",
        "autoplay": true,
        "autoplay_speed": 7,
        "lazyload_images": true
      }
    },
    "f80f5b06-e021-4824-b9ef-a9befff39611": {
      "type": "text-columns",
      "blocks": {
        "template--16025706037448__f80f5b06-e021-4824-b9ef-a9befff39611-1682441507fcea3833-0": {
          "type": "text_block",
          "settings": {
            "enable_image": true,
            "image": "shopify:\/\/shop_images\/bokay-circle-2-blood-orange-rgb-750px_300ppi.png",
            "image_mask": "rounded",
            "image_width": 250,
            "title": "",
            "heading_size": "h2",
            "text": "",
            "align_text": "center",
            "button_label": "",
            "button_link": ""
          }
        },
        "template--16025706037448__f80f5b06-e021-4824-b9ef-a9befff39611-1682441507fcea3833-1": {
          "type": "text_block",
          "settings": {
            "enable_image": false,
            "image_mask": "none",
            "image_width": 650,
            "title": "What is BOKAY?",
            "heading_size": "h2",
            "text": "<p>Founded by a fourth-generation florist, BOKAY™ was created to give you complete control of your flower arrangements by letting you pick every aspect from the flowers and greens to the colors and vase! <\/p><p>There’s no collection of pre-made arrangements and no questionnaire to try to match your style. Plus, we have honest pricing, so you only pay for what you create and order based on your selections. <\/p>",
            "align_text": "center",
            "button_label": "",
            "button_link": ""
          }
        },
        "template--16025706037448__f80f5b06-e021-4824-b9ef-a9befff39611-1682441507fcea3833-2": {
          "type": "text_block",
          "disabled": true,
          "settings": {
            "enable_image": true,
            "image_mask": "none",
            "image_width": 650,
            "title": "Example title",
            "heading_size": "h2",
            "text": "<p>Use this section to explain a set of product features, to link to a series of pages, or to answer common questions.<\/p>",
            "align_text": "center",
            "button_label": "Optional button",
            "button_link": ""
          }
        }
      },
      "block_order": [
        "template--16025706037448__f80f5b06-e021-4824-b9ef-a9befff39611-1682441507fcea3833-0",
        "template--16025706037448__f80f5b06-e021-4824-b9ef-a9befff39611-1682441507fcea3833-1",
        "template--16025706037448__f80f5b06-e021-4824-b9ef-a9befff39611-1682441507fcea3833-2"
      ],
      "settings": {
        "title": "",
        "heading_size": "h2",
        "align_text": "left",
        "divider": false,
        "color_scheme": "none"
      }
    },
    "baf2fd82-d28e-433c-b7ec-b6d8cce2fa41": {
      "type": "advanced-content",
      "blocks": {
        "template--16025706037448__baf2fd82-d28e-433c-b7ec-b6d8cce2fa41-168246448645b0fea3-0": {
          "type": "image",
          "disabled": true,
          "settings": {
            "link": "",
            "width": "25%",
            "alignment": "center"
          }
        },
        "template--16025706037448__baf2fd82-d28e-433c-b7ec-b6d8cce2fa41-168246448645b0fea3-1": {
          "type": "liquid",
          "settings": {
            "code": "<p>Whether you design something whimsical or traditional, vibrant or subdued, or a completely new combination no one’s ever made, each design is your vision brought to life. Plus, with BOKAY™, what you order is actually what you get. Made with farm-fresh flowers from around the world, your BOKAY™ is assembled by hand with care in the U.S.  — then delivered to your recipient with love.<\/p>",
            "width": "100%",
            "alignment": "top-middle"
          }
        }
      },
      "block_order": [
        "template--16025706037448__baf2fd82-d28e-433c-b7ec-b6d8cce2fa41-168246448645b0fea3-0",
        "template--16025706037448__baf2fd82-d28e-433c-b7ec-b6d8cce2fa41-168246448645b0fea3-1"
      ],
      "settings": {
        "section_id": "what-is-bokay",
        "full_width": false,
        "space_around": true,
        "lazyload_images": true
      }
    },
    "920bd7c9-86f9-42f5-afea-092a06371690": {
      "type": "rich-text",
      "blocks": {
        "template--16025706037448__920bd7c9-86f9-42f5-afea-092a06371690-16801334869cf15c54-0": {
          "type": "heading",
          "settings": {
            "title": "As a florist, BOKAY’s founder Kevin McCarthy realized there were two main problems plaguing the flower industry today.",
            "heading_size": "h3"
          }
        }
      },
      "block_order": [
        "template--16025706037448__920bd7c9-86f9-42f5-afea-092a06371690-16801334869cf15c54-0"
      ],
      "settings": {
        "align_text": "center",
        "narrow_column": false,
        "color_scheme": "1",
        "show_wave": false,
        "divider": false
      }
    },
    "featured-collection": {
      "type": "featured-collection",
      "disabled": true,
      "settings": {
        "title": "Featured collection",
        "heading_size": "h2",
        "heading_position": "left",
        "home_featured_products": "",
        "count": 6,
        "products_per_row": 3,
        "mobile_scrollable": true,
        "view_all": true,
        "divider": false
      }
    },
    "form": {
      "type": "contact-form",
      "disabled": true,
      "settings": {
        "title": "Contact us",
        "heading_size": "h2",
        "heading_position": "left",
        "text": "",
        "show_phone": false,
        "narrow_column": true,
        "color_scheme": "none"
      }
    },
    "3e5d6691-d906-41ba-80da-8f181e27ea70": {
      "type": "text-with-icons",
      "blocks": {
        "template--16025706037448__3e5d6691-d906-41ba-80da-8f181e27ea70-168013418704598c1b-0": {
          "type": "text_block",
          "settings": {
            "icon": "gears",
            "title": "Problem",
            "text": "<p>Flowers have lost their personal touch.<\/p><p><\/p><p>Everyone loves flowers, but each person is unique. Everyone has their own style, preferences, and tastes. Why should the flowers you send to someone special be pre-made and the same as one sent to thousands of others? Your recipient is unique and their flower arrangement should be too.<\/p>"
          }
        },
        "template--16025706037448__3e5d6691-d906-41ba-80da-8f181e27ea70-168013418704598c1b-1": {
          "type": "text_block",
          "settings": {
            "icon": "thumbs-up",
            "title": "Solution",
            "text": "<p>Enter BOKAY™. Instead of trying to search an online catalog looking for flowers that you hope someone will like, BOKAY™ lets you design flowers specifically for the person you're sending them to. Does she love pink but hate purple? Does he like roses but can’t stand sunflowers? We make it simple - you create the design uniquely for your recipient and they’ll know you took the time and effort to make something special just for them!<\/p>"
          }
        }
      },
      "block_order": [
        "template--16025706037448__3e5d6691-d906-41ba-80da-8f181e27ea70-168013418704598c1b-0",
        "template--16025706037448__3e5d6691-d906-41ba-80da-8f181e27ea70-168013418704598c1b-1"
      ],
      "settings": {
        "title": "",
        "heading_size": "h1",
        "heading_position": "left",
        "desktop_columns_per_row": 3,
        "icon_color": "#ef4723",
        "button_text": "",
        "button_link": "",
        "divider": false
      }
    },
    "b6456ebf-f9af-4605-9836-249bcd85d392": {
      "type": "text-with-icons",
      "blocks": {
        "template--16025706037448__b6456ebf-f9af-4605-9836-249bcd85d392-168013418704598c1b-0": {
          "type": "text_block",
          "settings": {
            "icon": "gears",
            "title": "Problem",
            "text": "<p>What your order is not what you get.<\/p><p>After scrolling through hundreds of options online, you finally find an arrangement that you like. The vase, the colors, the flowers — they all look pretty nice. The price isn’t too bad either. You place your order. It arrives soon, but you don’t see a picture of the finished product before the flowers are delivered to your recipient. Then when the arrangement arrives, it looks nothing like what you ordered. You’re disappointed and so are they. When you order from hundreds of pre-made choices online, you rarely know what you’re actually going to get. <\/p>"
          }
        },
        "template--16025706037448__b6456ebf-f9af-4605-9836-249bcd85d392-168013418704598c1b-1": {
          "type": "text_block",
          "settings": {
            "icon": "thumbs-up",
            "title": "Solution",
            "text": "<p>At BOKAY™, we think there’s a better way. What you order is what you get. We carry thousands of the freshest stems from around the world. If for some reason the flower you selected isn’t available or doesn’t meet our standards, we’ll let you know and offer a substitute - or your money back. We believe you should get exactly what you pay for and what you design.<\/p>"
          }
        }
      },
      "block_order": [
        "template--16025706037448__b6456ebf-f9af-4605-9836-249bcd85d392-168013418704598c1b-0",
        "template--16025706037448__b6456ebf-f9af-4605-9836-249bcd85d392-168013418704598c1b-1"
      ],
      "settings": {
        "title": "",
        "heading_size": "h2",
        "heading_position": "left",
        "desktop_columns_per_row": 3,
        "icon_color": "#ef4723",
        "button_text": "",
        "button_link": "",
        "divider": false
      }
    },
    "90011cac-2cee-4cd8-a311-e31d3130df43": {
      "type": "text-and-image",
      "settings": {
        "image": "shopify:\/\/shop_images\/Untitled-3_131b776e-f793-4625-9b6a-8a5ac71c8862.png",
        "image_mask": "rounded",
        "image2": "shopify:\/\/shop_images\/DSC_0204-min.jpg",
        "image2_mask": "rounded",
        "subtitle": "",
        "title": "What is BOKAY?",
        "heading_size": "h2",
        "text": "<p>BO-KAY, BOO-KAY, B-OKAY... What’s right? Well, even if you can’t pronounce it, you’ll love what we do. We believe that flowers can make everything Be OKAY. BOKAY™. The name is also an homage to the beginnings of our company. All the way back in 1952, Bud McCarthy founded Bud’s Bokay Shop in Scranton, Pennsylvania, where he worked with his father to create fun and unique arrangements for customers. His grandson, Kevin McCarthy, continues the family legacy with BOKAY™. With the same creative and “punny” spirit, BOKAY™ embraces its origins while using the latest technology to design unique flowers for everyone.<\/p>",
        "button_label": "",
        "button_link": "",
        "button_style": "primary",
        "align_text": "left",
        "image_width": "50",
        "layout": "right",
        "color_scheme": "1",
        "show_wave": false,
        "divider": false,
        "top_padding": true,
        "bottom_padding": true,
        "lazyload_images": true
      }
    },
    "10b0c662-0657-4b92-96b8-c0a55d452d20": {
      "type": "rich-text",
      "blocks": {
        "template--16025706037448__10b0c662-0657-4b92-96b8-c0a55d452d20-16801334869cf15c54-0": {
          "type": "heading",
          "settings": {
            "title": "",
            "heading_size": "h2"
          }
        }
      },
      "block_order": [
        "template--16025706037448__10b0c662-0657-4b92-96b8-c0a55d452d20-16801334869cf15c54-0"
      ],
      "settings": {
        "align_text": "left",
        "narrow_column": false,
        "color_scheme": "2",
        "show_wave": false,
        "divider": false
      }
    },
    "99ea840f-48a3-41cf-821e-99df4e7cf456": {
      "type": "rich-text",
      "blocks": {
        "template--16025706037448__99ea840f-48a3-41cf-821e-99df4e7cf456-16801334869cf15c54-0": {
          "type": "heading",
          "settings": {
            "title": "Who is behind BOKAY?",
            "heading_size": "h2"
          }
        },
        "template--16025706037448__99ea840f-48a3-41cf-821e-99df4e7cf456-16801334869cf15c54-1": {
          "type": "text",
          "disabled": true,
          "settings": {
            "enlarge_text": false,
            "text": ""
          }
        }
      },
      "block_order": [
        "template--16025706037448__99ea840f-48a3-41cf-821e-99df4e7cf456-16801334869cf15c54-0",
        "template--16025706037448__99ea840f-48a3-41cf-821e-99df4e7cf456-16801334869cf15c54-1"
      ],
      "settings": {
        "align_text": "center",
        "narrow_column": true,
        "color_scheme": "3",
        "show_wave": false,
        "divider": false
      }
    },
    "9d6ae01f-ad6f-47e3-8ca0-6faaa5b2a652": {
      "type": "text-columns",
      "blocks": {
        "template--16025706037448__9d6ae01f-ad6f-47e3-8ca0-6faaa5b2a652-1680135070a8fc4b5d-0": {
          "type": "text_block",
          "settings": {
            "enable_image": true,
            "image": "shopify:\/\/shop_images\/kev.jpg",
            "image_mask": "rounded",
            "image_width": 240,
            "title": "Kevin R. McCarthy <br>Founder + CEO aka “The Big Cheese\"<br>",
            "heading_size": "h3",
            "text": "<p>Born in Scranton, Pennsylvania, Kevin is a fourth generation florist and retailer. He is an experienced C-level executive and investor who loves to take on new challenges. Kevin created BOKAY™ to deliver love through one-of-a-kind floral arrangements, and he executes the company’s mission while overseeing all operations. Kevin and his wife, Julianna, live in Atlanta, Georgia, with their children. He hopes to reshape the flower industry by offering fully personalized flower arrangements through a fun and honest experience.<\/p>",
            "align_text": "center",
            "button_label": "",
            "button_link": ""
          }
        },
        "template--16025706037448__9d6ae01f-ad6f-47e3-8ca0-6faaa5b2a652-1680135070a8fc4b5d-1": {
          "type": "text_block",
          "settings": {
            "enable_image": true,
            "image": "shopify:\/\/shop_images\/jules_21cd38f2-d2a2-4e4a-a254-8f5b025eaecf.jpg",
            "image_mask": "rounded",
            "image_width": 240,
            "title": "Julianna McCarthy <br>Co-Founder aka “The Brains\"<br>",
            "heading_size": "h3",
            "text": "<p>Atlanta native Julianna McCarthy is a self-proclaimed \"font snob\" and wordsmith extraordinaire. She graduated with her degree in English from the University of Georgia, and has spent years cultivating a passion for flowers and marketing. She loves inspiring others through the beauty of flowers.<\/p>",
            "align_text": "center",
            "button_label": "Optional button",
            "button_link": ""
          }
        }
      },
      "block_order": [
        "template--16025706037448__9d6ae01f-ad6f-47e3-8ca0-6faaa5b2a652-1680135070a8fc4b5d-0",
        "template--16025706037448__9d6ae01f-ad6f-47e3-8ca0-6faaa5b2a652-1680135070a8fc4b5d-1"
      ],
      "settings": {
        "title": "",
        "heading_size": "h2",
        "align_text": "left",
        "divider": false,
        "color_scheme": "none"
      }
    },
    "097b0d99-cecb-423a-a337-6c891c2a4bad": {
      "type": "text-columns",
      "blocks": {
        "template--16025706037448__097b0d99-cecb-423a-a337-6c891c2a4bad-1680135070a8fc4b5d-0": {
          "type": "text_block",
          "settings": {
            "enable_image": true,
            "image": "shopify:\/\/shop_images\/MG_7765.jpg",
            "image_mask": "rounded",
            "image_width": 240,
            "title": "Meghan McCarthy Co-Founder aka “The Wunderkind\"",
            "heading_size": "h3",
            "text": "<p>Meghan grew up learning about the floral business by working with her family in flower shops. For the past six years, she has built a name for herself in the entertainment world as a social media influencer. During her senior year of college, she began making comedic videos on Vine and grew her following to more than 3 million fans and billions of views. She’s continued to gain an audience across social platforms including her more than 2 million subscribers on YouTube. Meghan has also starred in comedic web series and been the voice of cuddly characters. While continuing her acting career, Meghan uses her marketing savvy and expertise to showcase BOKAY™.<\/p>",
            "align_text": "center",
            "button_label": "",
            "button_link": ""
          }
        },
        "template--16025706037448__097b0d99-cecb-423a-a337-6c891c2a4bad-1680135070a8fc4b5d-1": {
          "type": "text_block",
          "settings": {
            "enable_image": true,
            "image": "shopify:\/\/shop_images\/KaitlynBlakePhotography-28.jpg",
            "image_mask": "rounded",
            "image_width": 240,
            "title": "Kelsey Price Project Manager aka “The Mover and Shaker\"",
            "heading_size": "h3",
            "text": "<p>Kelsey Price is the lead project manager of BOKAY™. Her background is in web development and digital marketing. She earned her bachelor’s degree in business from Lyndon State College in Vermont and went on to receive her M.B.A. from Johnson and Wales University. Her love of flowers came from a previous position with a national florist, and she’s excited to give customers the freedom and personalization of ordering flowers!<\/p>",
            "align_text": "center",
            "button_label": "",
            "button_link": ""
          }
        }
      },
      "block_order": [
        "template--16025706037448__097b0d99-cecb-423a-a337-6c891c2a4bad-1680135070a8fc4b5d-0",
        "template--16025706037448__097b0d99-cecb-423a-a337-6c891c2a4bad-1680135070a8fc4b5d-1"
      ],
      "settings": {
        "title": "",
        "heading_size": "h2",
        "align_text": "left",
        "divider": false,
        "color_scheme": "none"
      }
    }
  },
  "order": [
    "main",
    "slideshow",
    "f80f5b06-e021-4824-b9ef-a9befff39611",
    "baf2fd82-d28e-433c-b7ec-b6d8cce2fa41",
    "920bd7c9-86f9-42f5-afea-092a06371690",
    "featured-collection",
    "form",
    "3e5d6691-d906-41ba-80da-8f181e27ea70",
    "b6456ebf-f9af-4605-9836-249bcd85d392",
    "90011cac-2cee-4cd8-a311-e31d3130df43",
    "10b0c662-0657-4b92-96b8-c0a55d452d20",
    "99ea840f-48a3-41cf-821e-99df4e7cf456",
    "9d6ae01f-ad6f-47e3-8ca0-6faaa5b2a652",
    "097b0d99-cecb-423a-a337-6c891c2a4bad"
  ]
}