{
  "sections": {
    "main": {
      "type": "main-product",
      "blocks": {
        "variant_picker": {
          "type": "variant_picker",
          "settings": {
            "variant_labels": true,
            "picker_type": "button",
            "product_dynamic_variants_enable": true,
            "color_swatches": false
          }
        },
        "price": {
          "type": "price",
          "settings": {}
        },
        "sales_point": {
          "type": "sales_point",
          "settings": {
            "icon": "globe",
            "text": "$15 next-biz day delivery, free shipping over $99"
          }
        },
        "sales_point3": {
          "type": "sales_point",
          "settings": {
            "icon": "leaf",
            "text": "Carbon neutral shipping"
          }
        },
        "a50bef55-0b88-4356-983f-63916c08c132": {
          "type": "sales_point",
          "settings": {
            "icon": "heart",
            "text": "Happy + Honest Guarantee"
          }
        },
        "sales_point4": {
          "type": "sales_point",
          "settings": {
            "icon": "lock",
            "text": "Secure payments"
          }
        },
        "inventory_status": {
          "type": "inventory_status",
          "settings": {
            "inventory_threshold": 10,
            "inventory_transfers_enable": true
          }
        },
        "buy_buttons": {
          "type": "buy_buttons",
          "settings": {
            "show_dynamic_checkout": true,
            "surface_pickup_enable": true
          }
        },
        "fd4c83e4-83f7-4805-a44b-0292b783cdcd": {
          "type": "shopify:\/\/apps\/yotpo-product-photo-reviews\/blocks\/star-rating\/eb7dfd7d-db44-4334-bc49-c893b51b36cf",
          "settings": {
            "product": "{{product}}"
          }
        }
      },
      "block_order": [
        "variant_picker",
        "price",
        "fd4c83e4-83f7-4805-a44b-0292b783cdcd",
        "sales_point",
        "sales_point3",
        "a50bef55-0b88-4356-983f-63916c08c132",
        "sales_point4",
        "inventory_status",
        "buy_buttons"
      ],
      "settings": {
        "sku_enable": false,
        "image_position": "left",
        "image_container_size": "medium",
        "product_image_size": "square",
        "product_zoom_enable": true,
        "thumbnail_position": "beside",
        "thumbnail_height": "flexible",
        "thumbnail_arrows": false,
        "mobile_layout": "partial",
        "enable_video_looping": true,
        "product_video_style": "muted"
      }
    },
    "sub": {
      "type": "product-full-width",
      "blocks": {
        "description": {
          "type": "description",
          "settings": {
            "is_tab": true
          }
        },
        "tab": {
          "type": "tab",
          "settings": {
            "title": "Shipping information",
            "content": "<p>Shipping information for BOKAY's:<\/p><p>Your BOKAY will arrive in a secure flower box to your recipient's doorstep on the date you select for delivery. We ship using FedEx and UPS Overnight for maximum freshness. However, we highly recommend scheduling your delivery date one day earlier if you want your flowers for a specific day in the rare case of any shipping delays from carriers. <\/p><p>Your arrangement will include your card message (if you provide one), care instructions, and more! Some of our farm-fresh flowers may arrive in bud form for longevity and may need a few days to bloom. <\/p><p>To track your order, make sure to enter the email you want to receive shipping updates in the 'Email or mobile phone number field' on the Contact Information page during checkout. <\/p><p>Shipping information for chocolates:<\/p><p>Your gift will arrive in a box to your doorstep from USPS or UPS. Please note that this item requires a few extra days to process and ships directly from the chocolatier, so the delivery date you select is not guaranteed and the item may arrive a 1 or 2 days earlier or later. <\/p><p>Your gift will include your card message (if you provide one) and more! You can track your order too! Make sure during checkout that you enter the email you want to receive shipping updates in the 'Email or mobile phone number field' on the Contact Information page.<\/p>",
            "page": ""
          }
        },
        "contact": {
          "type": "contact",
          "settings": {
            "title": "Ask a question",
            "phone": true
          }
        }
      },
      "block_order": [
        "description",
        "tab",
        "contact"
      ],
      "settings": {
        "max_width": true
      }
    },
    "recommendations": {
      "type": "product-recommendations",
      "disabled": true,
      "settings": {
        "product_recommendations_heading": "You may also like",
        "related_count": 3,
        "products_per_row": 3
      }
    },
    "more-products-vendor": {
      "type": "more-products-vendor",
      "disabled": true,
      "settings": {
        "products_per_row": 5
      }
    },
    "more-products-collection": {
      "type": "more-products-collection",
      "disabled": true,
      "settings": {
        "products_per_row": 3
      }
    },
    "recently-viewed": {
      "type": "recently-viewed",
      "settings": {}
    },
    "collection-return": {
      "type": "collection-return",
      "settings": {
        "color_scheme": "1"
      }
    },
    "f68a41df6bafd19a20bf": {
      "type": "apps",
      "blocks": {
        "c3541a35-9a84-4be8-ac8f-a9fb52ef367d": {
          "type": "shopify:\/\/apps\/yotpo-product-photo-reviews\/blocks\/reviews\/eb7dfd7d-db44-4334-bc49-c893b51b36cf",
          "settings": {
            "product": "{{product}}"
          }
        }
      },
      "block_order": [
        "c3541a35-9a84-4be8-ac8f-a9fb52ef367d"
      ],
      "settings": {}
    }
  },
  "order": [
    "main",
    "f68a41df6bafd19a20bf",
    "sub",
    "recommendations",
    "more-products-vendor",
    "more-products-collection",
    "recently-viewed",
    "collection-return"
  ]
}